www.nsra.ru

	  

Руководитель	  ФГКУ	  «Администрация	  Севморпути»	  
А.	  Ольшевский	  

«Функционирование	  Северного	  морского	  пути:	  
статистика	  и	  перспективы»	  	  

2014г.

2	  

ФГКУ «Администрация Севморпути»

3	  

ФГКУ «Администрация Севморпути»

Основные	  функции	  Администрации	  Северного	  морского	  пути	  
прием	   заявлений	   о	   получении	   разрешений	   на	   плавание	   судов	   в	   акватории	   Северного	   морского	  
пути,	   рассмотрение	   таких	   заявлений	   и	   выдача	   разрешений	   на	   плавание	   судов	   в	   акватории	  
Северного	  морского	  пути;	  
мониторинг	  гидрометеорологической,	  ледовой	  и	  навигационной	  обстановки	  в	  акватории	  Северного	  
морского	  пути;	  
согласование	   установки	   средств	   навигационного	   оборудования	   и	   районов	   проведения	  
гидрографических	  работ	  в	  акватории	  Северного	  морского	  пути;	  
предоставление	   информационных	   услуг	   (применительно	   к	   акватории	   Северного	   морского	   пути)	   в	  
области	   организации	   плавания	   судов,	   требований	   к	   обеспечению	   безопасности	   плавания	   судов,	  
навигационно-­‐гидрографическому	   обеспечению	   плавания	   судов,	   обеспечению	   осуществления	  
ледокольной	  проводки	  судов;	  
выработка	   рекомендаций	   по	   разработке	   маршрутов	   плавания	   судов	   и	   использованию	   судов	  
ледокольного	   флота	   в	   акватории	   Северного	   морского	   пути	   с	   учетом	   гидрометеорологической,	  
ледовой	  и	  навигационной	  обстановки	  в	  указанной	  акватории;	  
содействие	  в	  организации	  проведения	  поисковых	  и	  спасательных	  операций	  в	  акватории	  Северного	  
морского	  пути;	  
выдача	   удостоверений	   лицам,	   осуществляющим	   ледовую	   лоцманскую	   проводку	   судов,	   о	   праве	  
ледовой	  лоцманской	  проводки	  судов	  в	  акватории	  Северного	  морского	  пути;	  
содействие	   в	   проведении	   операций	   по	   ликвидации	   последствий	   загрязнения	   с	   судов	   опасными	   и	  
вредными	  веществами,	  сточными	  водами	  или	  мусором.	  
4	  

ФГКУ «Администрация Севморпути»

Порядок	  получения	  разрешений	  для	  плавания	  в	  акватории	  	  
Северного	  морского	  пути	  
	  	  	  Заявление	  подается	  не	  ранее	  120	  календарных	  дней	  и	  не	  позднее	  15	  
рабочих	  дней	  до	  даты	  захода	  в	  акваторию	  Северного	  морского	  пути	  
Заявления	  размещаются	  на	  
официальном	  сайте	  и	  
рассматриваются	  в	  течение	  
10	  рабочих	  дней	  

Информация	  о	  выданных	  
разрешениях	  и	  уведомлениях	  
об	  отказе	  также	  размещается	  
на	  официальном	  сайте	  	  
5	  

ФГКУ «Администрация Севморпути»

Поступившие	  заявления	  на	  плавание	  в	  акватории	  Северного	  морского	  пути.	  Статистика	  
разрешений	  и	  отказов	  на	  выдачу	  разрешений	  в	  2014	  году	  

на	  01	  декабря	  2014	  года:	  

	  
	  
-­‐	  поступило	  заявлений	  на	   	  -­‐	  644	  судна;	  

-­‐	  выдано	  разрешений	  
	  -­‐	  614	  судам,	  
	  	  	  
	  	  в	  том	  числе	  под	  иностранным	  флагом	  
	  
	  	  	  	  	  	  	  	  	  	  	  	  	  	  	  	  	   	  
	  -­‐	  109	  судам	  (18	  %),	  
-­‐	  решений	  об	  отказе	  для	   	  -­‐	  30	  судов,	  
	  	  	  
	  	  из	  них	  окончательно	  не	  получили	  	  
	  	  разрешение	  только	  	  	  	  	  	  	  	  	  	  	  	  	  	  -­‐	  7	  судов	  (1	  %).	  
	  

	  

Разрешения	  на	  плавание
Решения	  об	  отказе
6	  

ФГКУ «Администрация Севморпути»

Объемы	  перевозки	  грузов	  по	  Севморпути	  	  
по	  состоянию	  на	  01	  декабря	  2013	  и	  2014	  года	  (тысячи	  тонн)	  
На	  01.12.2013	  

На	  	  
01.12.2014	  

увеличение/	  
уменьшение	  

порты	  	  
СМП	  

2	  602	  

3	  512	  

+	  910	  (35	  %)	  	  

транзит	  

1	  176	  

274	  

-­‐	  902	  (77	  %)	  

Всего	  

3	  778	  

3	  786	  

+	  8	  (0,2	  %)	  
7	  

ФГКУ «Администрация Севморпути»

Май	  2014	  г.	  	  Рейс	  тх	  «Иван	  Папанин»	  из	  порта	  Кандалакша	  в	  бухту	  Темп	  	  	  	  	  	  	  	  	  	  	  	  	  	  	  	  	  	  	  	  	  	  	  	  	  	  	  	  	  	  	  	  	  	  	  
на	  о.	  Котельный	  под	  проводкой	  ал	  «Вайгач».	  
За	  навигацию	  2014	  года	  в	  бухту	  Темп	  было	  завезено	  всего	  41	  тыс.	  тонн	  груза

Баренцево море

Карское море

море Лаптевых
Темп

п-ов Таймыр

ВосточноСибирское
море

Диксон
Сабетта

Тикси
Певек

Кандалакша

8	  

ФГКУ «Администрация Севморпути»

Ледорезное	  устройство,	  используемое	  для	  предварительной	  прорези	  кромок	  
ледового	  канала	  в	  месте	  постановки	  судна	  
в	  целях	  предотвращения	  подлома	  кромок	  льда	  у	  бортов	  судна	  

9	  

ФГКУ «Администрация Севморпути»

31	  мая	  2014	  г.	  	  Выгрузка	  7	  800	  тонн	  груза	  с	  тх	  «Иван	  Папанин»	  	  
на	  припай	  бухты	  Темп	  о.	  Котельный.	  
Видны	  ровные	  кромки	  ледового	  канала	  и	  отсутствие	  подлома	  льда	  
у	  бортов	  судна,	  что	  повышает	  безопасность	  выгрузки	  	  

10	  

ФГКУ «Администрация Севморпути»
Развитие	  хозяйственной	  деятельности	  в	  2014	  году	  на	  примере	  Карского	  моря.	  
Зимой	  2013-­‐14	  гг.	  круглогодичная	  навигация	  продолжалась	  в	  п.	  Дудинка,	  началась	  в	  п.	  Сабетта.	  
Летом	  	  2014	  г.	  начался	  вывоз	  нефти	  Новопортовского	  месторождения	  от	  м.	  Каменный.	  
Перспективное	  направление	  -­‐	  вывоз	  нефти	  Паяхского	  месторождения	  от	  м.	  Таналау	  	  в	  р.Енисей.	  

цкого
и
к
ь
л
и
В
пролив

К а р с ко е

м о р е
п–ов Таймыр

«West Alpha»
Унивеситетская -1

ар

х.

Диксон
Сабетта
Новый порт

Таналау
Дудинка
11	  

ФГКУ «Администрация Севморпути»

Судно	  двойного	  действия	  ОАО	  «ГМК	  «Норильский	  Никель»	  	  
в	  порту	  Дудинка	  зимой.	  
Смерзшийся	  битый	  лед	  представляет	  серьезное	  препятствие	  	  
для	  маневрирования	  судов	  на	  акватории	  порта	  

12	  

ФГКУ «Администрация Севморпути»

Зима	  2014	  г.	  Порт	  Сабетта.	  Отвод	  атомным	  ледоколом	  «Таймыр»	  	  
от	  причала	  ПП	  №	  3	  тх	  «Иван	  Рябов»	  Северного	  морского	  пароходства.	  
Лед	  заснежен	  и	  продолжает	  намерзать.	  
	  

13	  

ФГКУ «Администрация Севморпути»

Июнь	  2014	  г.	  	  Порт	  Сабетта.	  Вид	  причалов	  подготовительного	  периода.	  
Начальная	  стадия	  таяния	  льда,	  вода	  в	  ледовом	  канале	  уже	  не	  смерзается.	  
Но	  ледокольная	  проводка	  необходима,	  как	  при	  постановке	  судна	  к	  причалу,	  
так	  и	  	  при	  отходе	  от	  причала	  

14	  

ФГКУ «Администрация Севморпути»

Август	  2014	  г.	  	  Порт	  	  Сабетта.	  Выгрузка	  щебня	  с	  балкеров	  дедвейтом	  40	  000	  тонн	  
судовыми	  грейферами	  до	  20	  000	  т/сут.	  
Использование	  подобных	  высокотехнологичных	  судов	  	  
позволило	  значительно	  увеличить	  завоз	  грузов	  	  	  

15	  

ФГКУ «Администрация Севморпути»

Увеличение	  завоза	  грузов	  в	  порт	  Сабетта	  на	  01	  декабря	  в	  2014	  г.	  
	  по	  сравнению	  с	  2013	  г.,	  в	  тыс.	  тонн.	  
В	  основном	  за	  счет	  этого	  увеличился	  и	  общий	  объем	  перевозок	  по	  портам	  СМП	  
	  (без	  учета	  транзита)	  	  

01.	  12.	  2013

01.	  12.	  2014	  

Сухие	  грузы

376

1008	  	  	  	  (+632)

Нефтепродукты

8

32	  	  	  	  	  (+24)

Всего	  по	  п.	  Сабетта

384

1	  040	  	  	  (+656)

Всего	  порты	  СМП

2	  602

3	  512	  	  	  (+910)

(увеличение)

16	  

ФГКУ «Администрация Севморпути»

Изменения суммарной площади льдов арктических морей и их
фоновый прогноз в XXI веке (ААНИИ)

тыс. кв. км

годы
17	  

ФГКУ «Администрация Севморпути»

сентябрь	  2012	  года,	  минимальная	  площадь	  арктических	  льдов	  

Чукотское море

Певек
Восточно-Сибирское
море

Мурманск

море Лаптевых
Карское море
Хатанга

Сабетта

Тикси

Диксон
18

ФГКУ «Администрация Севморпути»

«Зимняя»	  ледовая	  обстановка	  12-­‐14	  мая	  2013	  года	  

Певек

Мурманск
Хатанга

Сабетта

Тикси

Диксон
19	  

ФГКУ «Администрация Севморпути»

Июль	  2014	  г.Восточно-­‐Сибирское	  море.	  Застрявший	  в	  канале	  тк	  «Индига».	  
Последние	  300	  миль	  во	  льду	  средняя	  скорость	  проводки	  составила	  менее	  1,5	  узла.	  

20	  

ФГКУ «Администрация Севморпути»

	  

	  

Июль	  2014	  г.	  	  тк	  «Индига»	  рейс	  Мурманск	  –	  Певек	  под	  проводкой	  ал	  «Ямал».
Последние	  300	  миль	  во	  льду	  средняя	  скорость	  проводки	  составила	  менее	  1,5	  узла	  

	  
	  

29.06.2014 1300 миль - 6 суток 05.07.2014
300 миль
9 суток

14.07.2014
21	  

ФГКУ «Администрация Севморпути»

Добро пожаловать на СМП !

www.nsra.ru
22	  

